04:25:22.514238 Log continuation - Log started 2021-02-19T08:52:40.266672000Z
04:25:24.505341 GUI: UIMediumEnumerator: Medium-enumeration finished!
04:26:00.329132 GUI: UIMediumEnumerator: Medium with key={44ea7bf6-37bf-4b09-9d0c-849a5d4e9e1e} created
04:26:04.486492 GUI: UIMediumEnumerator: Medium-enumeration finished!
04:26:08.162784 GUI: UIMediumEnumerator: Medium-enumeration started...
04:26:21.336536 2D support test succeeded
04:26:22.092549 GUI: UIMediumEnumerator: Medium-enumeration finished!
04:26:43.276721 GUI: UIMediumEnumerator: Medium-enumeration finished!
04:27:21.397471 GUI: UIMediumEnumerator: Medium-enumeration finished!
04:27:40.398985 GUI: UIMediumEnumerator: Medium-enumeration finished!
04:27:41.386223 GUI: UIMediumEnumerator: Medium-enumeration finished!
04:27:41.395990 GUI: UIMediumEnumerator: Medium-enumeration finished!
