VirtualBox COM Server 5.2.20 r125813 win.amd64 (Oct 15 2018 15:10:47) release log
00:00:00.040105 main     Log opened 2021-02-19T08:52:39.201335500Z
00:00:00.040105 main     Build Type: release
00:00:00.041103 main     OS Product: Windows 10
00:00:00.041103 main     OS Release: 10.0.18363
00:00:00.041103 main     OS Service Pack: 
00:00:00.322587 main     DMI Product Name: Latitude E6520
00:00:00.356157 main     DMI Product Version: 01
00:00:00.356157 main     Host RAM: 3976MB (3.8GB) total, 730MB available
00:00:00.357486 main     Executable: C:\Program Files\Oracle\VirtualBox\VBoxSVC.exe
00:00:00.357486 main     Process ID: 10760
00:00:00.357486 main     Package type: WINDOWS_64BITS_GENERIC
00:00:00.365498          VirtualBox: object creation starts
00:00:00.367501          Home directory: 'C:\Users\yassine\.VirtualBox'
00:00:00.367501          Installed Drivers:
00:00:00.385417            C:\WINDOWS\system32\DRIVERS\VBoxDrv.sys (Version: 5.2.20.25813)
00:00:00.386425            C:\WINDOWS\system32\DRIVERS\VBoxUSBMon.sys (Version: 5.2.20.25813)
00:00:00.386425            C:\WINDOWS\system32\DRIVERS\VBoxNetAdp.sys (Version: 5.2.20.25813)
00:00:00.537830          Getting USB descriptor failed with error 31
00:00:00.541455          usbLibDevCfgDrGet: DeviceIoControl 1 fail dwErr (31)
00:00:00.589396          USB: Unknown USB device detected (idVendor: 0x05ca, idProduct: 0x181c)
00:00:00.590394          USB: Unknown USB device detected (idVendor: 0x413c, idProduct: 0x818d)
00:00:00.934535          HostDnsMonitor: old information
00:00:00.934535            no server entries
00:00:00.934535            no domain set
00:00:00.934535            no search string entries
00:00:00.934535          HostDnsMonitor: new information
00:00:00.934535            server 1: 192.168.43.1
00:00:00.934535            no domain set
00:00:00.934535            no search string entries
00:00:00.934535          HostDnsMonitorProxy::notify
00:00:01.022533          VD: VDInit finished with VINF_SUCCESS
00:00:01.024458          VirtualBox: object created
00:00:12.118878          Saving settings file "C:\Users\yassine\.VirtualBox\VirtualBox.xml" with version "1.12-windows"
00:00:12.354512          Saving settings file "C:\Users\yassine\.VirtualBox\VirtualBox.xml" with version "1.12-windows"
00:07:04.723966 dns-monitor HostDnsMonitor: old information
00:07:04.723966 dns-monitor   server 1: 192.168.43.1
00:07:04.723966 dns-monitor   no domain set
00:07:04.724965 dns-monitor   no search string entries
00:07:04.724965 dns-monitor HostDnsMonitor: new information
00:07:04.724965 dns-monitor   no server entries
00:07:04.724965 dns-monitor   no domain set
00:07:04.724965 dns-monitor   no search string entries
00:07:04.724965 dns-monitor HostDnsMonitorProxy::notify
00:26:41.959037 dns-monitor HostDnsMonitor: old information
00:26:41.959037 dns-monitor   no server entries
00:26:41.959037 dns-monitor   no domain set
00:26:41.959037 dns-monitor   no search string entries
00:26:41.959037 dns-monitor HostDnsMonitor: new information
00:26:41.959037 dns-monitor   server 1: 192.168.43.1
00:26:41.959037 dns-monitor   no domain set
00:26:41.959037 dns-monitor   no search string entries
00:26:41.959037 dns-monitor HostDnsMonitorProxy::notify
00:28:42.615343 USBPROXY Getting USB descriptor failed with error 31
00:28:42.616347 USBPROXY usbLibDevCfgDrGet: DeviceIoControl 1 fail dwErr (31)
00:28:43.238368 USBPROXY Getting USB descriptor failed with error 31
00:28:43.239373 USBPROXY usbLibDevCfgDrGet: DeviceIoControl 1 fail dwErr (31)
00:28:51.020474 USBPROXY Getting USB descriptor failed with error 31
00:28:51.068442 USBPROXY usbLibDevCfgDrGet: DeviceIoControl 1 fail dwErr (31)
00:33:19.213345          Saving settings file "C:\Users\yassine\VirtualBox VMs\KUBERNETEs\KUBERNETEs.vbox" with version "1.16-windows"
00:33:19.760006          Saving settings file "C:\Users\yassine\VirtualBox VMs\KUBERNETEs\KUBERNETEs.vbox" with version "1.16-windows"
00:33:19.893924          Saving settings file "C:\Users\yassine\.VirtualBox\VirtualBox.xml" with version "1.12-windows"
00:33:20.106794          ERROR [COM]: aRC=E_FAIL (0x80004005) aIID={85cd948e-a71f-4289-281e-0ca7ad48cd89} aComponent={MachineWrap} aText={This machine does not have any snapshots}, preserve=false aResultDetail=0
00:33:20.154761          Saving settings file "C:\Users\yassine\VirtualBox VMs\KUBERNETEs\KUBERNETEs.vbox" with version "1.16-windows"
00:33:20.292677          ERROR [COM]: aRC=E_FAIL (0x80004005) aIID={85cd948e-a71f-4289-281e-0ca7ad48cd89} aComponent={MachineWrap} aText={This machine does not have any snapshots}, preserve=false aResultDetail=0
00:33:35.698035          ERROR [COM]: aRC=VBOX_E_OBJECT_NOT_FOUND (0x80bb0001) aIID={edba9d10-45d8-b440-1712-46ac0c9bc4c5} aComponent={ExtPackManagerWrap} aText={No extension pack by the name 'Oracle VM VirtualBox Extension Pack' was found}, preserve=false aResultDetail=0
00:33:36.627461          ERROR [COM]: aRC=VBOX_E_IPRT_ERROR (0x80bb0005) aIID={85cd948e-a71f-4289-281e-0ca7ad48cd89} aComponent={SessionMachine} aText={Saved screenshot data is not available (VERR_NOT_SUPPORTED)}, preserve=false aResultDetail=0
00:33:46.315561          Saving settings file "C:\Users\yassine\VirtualBox VMs\KUBERNETEs\KUBERNETEs.vbox" with version "1.16-windows"
00:37:35.534945          Saving settings file "C:\Users\yassine\VirtualBox VMs\KUBERNETEs\KUBERNETEs.vbox" with version "1.16-windows"
00:37:35.753561          Saving settings file "C:\Users\yassine\VirtualBox VMs\KUBERNETEs\KUBERNETEs.vbox" with version "1.16-windows"
00:37:35.913575          Saving settings file "C:\Users\yassine\VirtualBox VMs\KUBERNETEs\KUBERNETEs.vbox" with version "1.16-windows"
00:38:57.229512          Saving settings file "C:\Users\yassine\.VirtualBox\VirtualBox.xml" with version "1.12-windows"
00:38:57.335195          Saving settings file "C:\Users\yassine\.VirtualBox\VirtualBox.xml" with version "1.12-windows"
00:38:57.491509          Saving settings file "C:\Users\yassine\.VirtualBox\VirtualBox.xml" with version "1.12-windows"
00:38:57.584487          Saving settings file "C:\Users\yassine\.VirtualBox\VirtualBox.xml" with version "1.12-windows"
00:38:57.689036          Saving settings file "C:\Users\yassine\.VirtualBox\VirtualBox.xml" with version "1.12-windows"
02:37:04.587262 dns-monitor HostDnsMonitor: old information
02:37:04.618594 dns-monitor   server 1: 192.168.43.1
02:37:04.618594 dns-monitor   no domain set
02:37:04.618594 dns-monitor   no search string entries
02:37:04.618594 dns-monitor HostDnsMonitor: new information
02:37:04.618594 dns-monitor   no server entries
02:37:04.618594 dns-monitor   no domain set
02:37:04.618594 dns-monitor   no search string entries
02:37:04.618594 dns-monitor HostDnsMonitorProxy::notify
02:39:27.101988 dns-monitor HostDnsMonitor: old information
02:39:27.101988 dns-monitor   no server entries
02:39:27.101988 dns-monitor   no domain set
02:39:27.101988 dns-monitor   no search string entries
02:39:27.101988 dns-monitor HostDnsMonitor: new information
02:39:27.101988 dns-monitor   server 1: 192.168.43.1
02:39:27.101988 dns-monitor   no domain set
02:39:27.101988 dns-monitor   no search string entries
02:39:27.101988 dns-monitor HostDnsMonitorProxy::notify
02:52:04.340180 dns-monitor HostDnsMonitor: old information
02:52:04.340180 dns-monitor   server 1: 192.168.43.1
02:52:04.340180 dns-monitor   no domain set
02:52:04.340180 dns-monitor   no search string entries
02:52:04.340180 dns-monitor HostDnsMonitor: new information
02:52:04.340180 dns-monitor   no server entries
02:52:04.340180 dns-monitor   no domain set
02:52:04.340180 dns-monitor   no search string entries
02:52:04.340180 dns-monitor HostDnsMonitorProxy::notify
02:55:16.623426 dns-monitor HostDnsMonitor: old information
02:55:16.623426 dns-monitor   no server entries
02:55:16.623426 dns-monitor   no domain set
02:55:16.623426 dns-monitor   no search string entries
02:55:16.623426 dns-monitor HostDnsMonitor: new information
02:55:16.623426 dns-monitor   server 1: 192.168.43.1
02:55:16.623426 dns-monitor   no domain set
02:55:16.623426 dns-monitor   no search string entries
02:55:16.623426 dns-monitor HostDnsMonitorProxy::notify
03:01:01.287315 MainPower Host suspending: Paused 0 VMs
03:31:06.285534 dns-monitor HostDnsMonitor: old information
03:31:06.285534 dns-monitor   server 1: 192.168.43.1
03:31:06.285534 dns-monitor   no domain set
03:31:06.285534 dns-monitor   no search string entries
03:31:06.285534 dns-monitor HostDnsMonitor: new information
03:31:06.285534 dns-monitor   no server entries
03:31:06.285534 dns-monitor   no domain set
03:31:06.285534 dns-monitor   no search string entries
03:31:06.285534 dns-monitor HostDnsMonitorProxy::notify
03:31:06.905812 MainPower Host resumed: Resumed 0 VMs
03:31:12.679942 dns-monitor HostDnsMonitor: old information
03:31:12.679942 dns-monitor   no server entries
03:31:12.679942 dns-monitor   no domain set
03:31:12.679942 dns-monitor   no search string entries
03:31:12.679942 dns-monitor HostDnsMonitor: new information
03:31:12.679942 dns-monitor   server 1: 192.168.43.1
03:31:12.679942 dns-monitor   no domain set
03:31:12.679942 dns-monitor   no search string entries
03:31:12.679942 dns-monitor HostDnsMonitorProxy::notify
03:31:21.407129 USBPROXY Getting USB descriptor failed with error 31
03:31:31.727558 USBPROXY Getting USB descriptor failed with error 31
03:31:44.249916 USBPROXY Getting USB descriptor failed with error 31
03:31:49.378464 USBPROXY Getting USB descriptor failed with error 31
03:54:06.328851 dns-monitor HostDnsMonitor: old information
03:54:06.328851 dns-monitor   server 1: 192.168.43.1
03:54:06.328851 dns-monitor   no domain set
03:54:06.328851 dns-monitor   no search string entries
03:54:06.328851 dns-monitor HostDnsMonitor: new information
03:54:06.328851 dns-monitor   no server entries
03:54:06.328851 dns-monitor   no domain set
03:54:06.328851 dns-monitor   no search string entries
03:54:06.328851 dns-monitor HostDnsMonitorProxy::notify
03:54:12.318028 dns-monitor HostDnsMonitor: old information
03:54:12.318028 dns-monitor   no server entries
03:54:12.318028 dns-monitor   no domain set
03:54:12.318028 dns-monitor   no search string entries
03:54:12.318028 dns-monitor HostDnsMonitor: new information
03:54:12.318028 dns-monitor   server 1: 192.168.43.1
03:54:12.318028 dns-monitor   no domain set
03:54:12.318028 dns-monitor   no search string entries
03:54:12.318028 dns-monitor HostDnsMonitorProxy::notify
03:57:43.065014 MainPower Host suspending: Paused 0 VMs
03:57:44.850204 USBPROXY Getting USB descriptor failed with error 31
03:57:44.850204 USBPROXY usbLibDevCfgDrGet: DeviceIoControl 1 fail dwErr (31)
03:57:44.984765 USBPROXY USB: Unknown USB device detected (idVendor: 0x413c, idProduct: 0x818d)
04:03:01.851909 MainPower Host resumed: Resumed 0 VMs
04:03:21.602247 USBPROXY Getting USB descriptor failed with error 31
04:03:21.612279 USBPROXY usbLibDevCfgDrGet: DeviceIoControl 1 fail dwErr (31)
04:03:22.691453 USBPROXY Getting USB descriptor failed with error 31
04:03:22.697521 USBPROXY usbLibDevCfgDrGet: DeviceIoControl 1 fail dwErr (31)
04:03:42.857063 USBPROXY Getting USB descriptor failed with error 31
04:03:42.882701 USBPROXY usbLibDevCfgDrGet: DeviceIoControl 1 fail dwErr (31)
04:04:17.047419 USBPROXY Getting USB descriptor failed with error 31
04:04:17.055459 USBPROXY usbLibDevCfgDrGet: DeviceIoControl 1 fail dwErr (31)
04:04:17.949496 USBPROXY Getting USB descriptor failed with error 31
04:04:17.949496 USBPROXY usbLibDevCfgDrGet: DeviceIoControl 1 fail dwErr (31)
04:06:22.490500 USBPROXY Getting USB descriptor failed with error 31
04:06:22.576414 USBPROXY usbLibDevCfgDrGet: DeviceIoControl 1 fail dwErr (31)
04:25:58.567731          Saving settings file "C:\Users\yassine\VirtualBox VMs\centos\centos.vbox" with version "1.16-windows"
04:26:00.221980          Saving settings file "C:\Users\yassine\VirtualBox VMs\centos\centos.vbox" with version "1.16-windows"
04:26:00.454438          Saving settings file "C:\Users\yassine\.VirtualBox\VirtualBox.xml" with version "1.12-windows"
04:26:01.151405          Saving settings file "C:\Users\yassine\VirtualBox VMs\centos\centos.vbox" with version "1.16-windows"
04:26:01.587248          ERROR [COM]: aRC=E_FAIL (0x80004005) aIID={85cd948e-a71f-4289-281e-0ca7ad48cd89} aComponent={MachineWrap} aText={This machine does not have any snapshots}, preserve=false aResultDetail=0
04:26:40.700123          Saving settings file "C:\Users\yassine\VirtualBox VMs\centos\centos.vbox" with version "1.16-windows"
04:26:54.417374          ERROR [COM]: aRC=VBOX_E_OBJECT_NOT_FOUND (0x80bb0001) aIID={edba9d10-45d8-b440-1712-46ac0c9bc4c5} aComponent={ExtPackManagerWrap} aText={No extension pack by the name 'Oracle VM VirtualBox Extension Pack' was found}, preserve=false aResultDetail=0
04:26:55.107084          ERROR [COM]: aRC=VBOX_E_IPRT_ERROR (0x80bb0005) aIID={85cd948e-a71f-4289-281e-0ca7ad48cd89} aComponent={SessionMachine} aText={Saved screenshot data is not available (VERR_NOT_SUPPORTED)}, preserve=false aResultDetail=0
04:27:19.044454          Saving settings file "C:\Users\yassine\VirtualBox VMs\centos\centos.vbox" with version "1.16-windows"
04:27:37.943745          Saving settings file "C:\Users\yassine\VirtualBox VMs\centos\centos.vbox" with version "1.16-windows"
04:27:38.248384          Saving settings file "C:\Users\yassine\VirtualBox VMs\centos\centos.vbox" with version "1.16-windows"
04:27:38.856271          Saving settings file "C:\Users\yassine\VirtualBox VMs\centos\centos.vbox" with version "1.16-windows"
04:27:38.965643          Saving settings file "C:\Users\yassine\VirtualBox VMs\centos\centos.vbox" with version "1.16-windows"
04:27:41.617099          Saving settings file "C:\Users\yassine\.VirtualBox\VirtualBox.xml" with version "1.12-windows"
04:27:41.721295          Saving settings file "C:\Users\yassine\.VirtualBox\VirtualBox.xml" with version "1.12-windows"
04:27:41.889311          Saving settings file "C:\Users\yassine\.VirtualBox\VirtualBox.xml" with version "1.12-windows"
04:27:47.822728 main     VirtualBox: object deletion starts
04:27:47.843304 main     ERROR [COM]: aRC=VBOX_E_OBJECT_IN_USE (0x80bb000c) aIID={4afe423b-43e0-e9d0-82e8-ceb307940dda} aComponent={MediumWrap} aText={Medium 'C:\Users\yassine\VirtualBox VMs\KUBERNETEs\KUBERNETEs.vdi' cannot be closed because it is still attached to 1 virtual machines}, preserve=false aResultDetail=0
04:27:47.871131 main     ERROR [COM]: aRC=VBOX_E_OBJECT_IN_USE (0x80bb000c) aIID={4afe423b-43e0-e9d0-82e8-ceb307940dda} aComponent={MediumWrap} aText={Medium 'C:\Users\yassine\VirtualBox VMs\centos\centos.vdi' cannot be closed because it is still attached to 1 virtual machines}, preserve=false aResultDetail=0
04:27:47.907319 Watcher  ERROR [COM]: aRC=E_ACCESSDENIED (0x80070005) aIID={9570b9d5-f1a1-448a-10c5-e12f5285adad} aComponent={VirtualBoxWrap} aText={The object is not ready}, preserve=false aResultDetail=0
04:27:47.911025 main     VirtualBox: object deleted
